# 
# Wavefront OBJ file
# Created with Kaydara FBX
# 
mtllib chairlow__cv1.mtl

g chairlow
v 0.245000 0.563500 0.220200
v 0.245000 0.563500 -0.221500
v -0.136100 0.563500 -0.221500
v -0.136100 0.563500 0.220200
v -0.136100 0.561200 -0.229800
v -0.140300 0.561200 -0.228700
v -0.143400 0.561200 -0.225600
v -0.144500 0.561200 -0.221500
v -0.144500 0.561200 0.220200
v -0.143400 0.561200 0.224300
v -0.140300 0.561200 0.227400
v -0.136100 0.561200 0.228500
v 0.245000 0.561200 0.228500
v 0.249200 0.561200 0.227400
v 0.252200 0.561200 0.224300
v 0.253300 0.561200 0.220200
v 0.253300 0.561200 -0.221500
v 0.252200 0.561200 -0.225600
v 0.249200 0.561200 -0.228700
v 0.245000 0.561200 -0.229800
v -0.143400 0.555100 -0.234000
v -0.136100 0.555100 -0.236000
v -0.148700 0.555100 -0.228700
v -0.150600 0.555100 -0.221500
v -0.150600 0.555100 0.220200
v -0.148700 0.555100 0.227400
v -0.143400 0.555100 0.232700
v -0.136100 0.555100 0.234700
v 0.245000 0.555100 0.234700
v 0.252200 0.555100 0.232700
v 0.257500 0.555100 0.227400
v 0.259500 0.555100 0.220200
v 0.259500 0.555100 -0.221500
v 0.257500 0.555100 -0.228700
v 0.252200 0.555100 -0.234000
v 0.245000 0.555100 -0.236000
v -0.144500 0.546700 -0.236000
v -0.136100 0.546700 -0.238200
v -0.150600 0.546700 -0.229800
v -0.152900 0.546700 -0.221500
v -0.152900 0.546700 0.220200
v -0.150600 0.546700 0.228500
v -0.144500 0.546700 0.234700
v -0.136100 0.546700 0.236900
v 0.245000 0.546700 0.236900
v 0.253300 0.546700 0.234700
v 0.259500 0.546700 0.228500
v 0.261700 0.546700 0.220200
v 0.261700 0.546700 -0.221500
v 0.259500 0.546700 -0.229800
v 0.253300 0.546700 -0.236000
v 0.245000 0.546700 -0.238200
v -0.144500 0.501600 -0.236000
v -0.136100 0.501600 -0.238200
v -0.150600 0.501600 -0.229800
v -0.152900 0.501600 -0.221500
v -0.152900 0.501600 0.220200
v -0.150600 0.501600 0.228500
v -0.144500 0.501600 0.234700
v -0.136100 0.501600 0.236900
v 0.245000 0.501600 0.236900
v 0.253300 0.501600 0.234700
v 0.259500 0.501600 0.228500
v 0.261700 0.501600 0.220200
v 0.261700 0.501600 -0.221500
v 0.259500 0.501600 -0.229800
v 0.253300 0.501600 -0.236000
v 0.245000 0.501600 -0.238200
v -0.143400 0.493200 -0.234000
v -0.136100 0.493200 -0.236000
v -0.148700 0.493200 -0.228700
v -0.150600 0.493200 -0.221500
v -0.150600 0.493200 0.220200
v -0.148700 0.493200 0.227400
v -0.143400 0.493200 0.232700
v -0.136100 0.493200 0.234700
v 0.245000 0.493200 0.234700
v 0.252200 0.493200 0.232700
v 0.257500 0.493200 0.227400
v 0.259500 0.493200 0.220200
v 0.259500 0.493200 -0.221500
v 0.257500 0.493200 -0.228700
v 0.252200 0.493200 -0.234000
v 0.245000 0.493200 -0.236000
v -0.140300 0.487100 -0.228700
v -0.136100 0.487100 -0.229800
v -0.143400 0.487100 -0.225600
v -0.144500 0.487100 -0.221500
v -0.144500 0.487100 0.220200
v -0.143400 0.487100 0.224300
v -0.140300 0.487100 0.227400
v -0.136100 0.487100 0.228500
v 0.245000 0.487100 0.228500
v 0.249200 0.487100 0.227400
v 0.252200 0.487100 0.224300
v 0.253300 0.487100 0.220200
v 0.253300 0.487100 -0.221500
v 0.252200 0.487100 -0.225600
v 0.249200 0.487100 -0.228700
v 0.245000 0.487100 -0.229800
v -0.136100 0.484800 -0.221500
v -0.136100 0.484800 0.220200
v 0.245000 0.484800 0.220200
v 0.245000 0.484800 -0.221500
v -0.162300 0.491900 0.246100
v 0.214000 0.491900 0.246100
v 0.214000 0.491900 0.193800
v -0.162300 0.493000 0.193800
v 0.268700 0.491900 0.246100
v 0.268700 0.491900 0.193800
v 0.214000 0.491900 -0.185400
v -0.162300 0.493000 -0.185400
v 0.268700 0.491900 -0.185400
v -0.223500 0.433300 0.246100
v -0.162300 0.433300 0.246100
v -0.223500 0.491900 0.246100
v 0.214000 0.433300 0.246100
v 0.268700 0.433300 0.246100
v 0.268700 0.433300 0.193800
v 0.268700 0.433300 -0.185400
v 0.268700 0.433300 -0.246100
v 0.214000 0.433300 -0.246100
v 0.214000 0.491900 -0.246100
v 0.268700 0.491900 -0.246100
v -0.162300 0.433300 -0.246100
v -0.162300 0.491900 -0.246100
v -0.223500 0.433300 -0.246100
v -0.223500 0.491900 -0.246100
v -0.222400 0.434500 -0.185400
v -0.223500 0.491900 -0.185400
v -0.222400 0.434500 0.193800
v -0.223500 0.491900 0.193800
v -0.207500 1.248500 0.246100
v -0.268700 1.248500 0.246100
v -0.207500 1.248500 0.193800
v -0.268700 1.248500 0.193800
v -0.207500 1.248500 -0.185400
v -0.268700 1.248500 -0.246100
v -0.207500 1.248500 -0.246100
v -0.268700 1.248500 -0.185400
v -0.223500 0.001100 0.246100
v -0.162300 0.001100 0.246100
v 0.214000 0.001100 0.246100
v 0.268700 0.001100 0.246100
v 0.268700 0.001100 0.193800
v 0.268700 0.001100 -0.185400
v 0.268700 0.001100 -0.246100
v 0.214000 0.001100 -0.246100
v -0.162300 0.001100 -0.246100
v -0.223500 0.001100 -0.246100
v -0.222400 0.002300 0.193800
v -0.222400 0.002300 -0.185400
vt 0.520800 0.216600
vt 0.577500 0.216600
vt 0.535600 0.518400
vt 0.535600 0.518400
vt 0.478900 0.518400
vt 0.520800 0.216600
vt 0.478900 0.216600
vt 0.531800 0.217000
vt 0.531800 0.518400
vt 0.531800 0.518400
vt 0.478900 0.518400
vt 0.478900 0.216600
vt 0.923600 0.216600
vt 0.976500 0.216600
vt 0.976500 0.518400
vt 0.976500 0.518400
vt 0.923600 0.518400
vt 0.923600 0.216600
vt 0.915200 0.217000
vt 0.915200 0.518400
vt 0.531800 0.518400
vt 0.531800 0.518400
vt 0.531800 0.217000
vt 0.915200 0.217000
vt 0.878000 0.216600
vt 0.934700 0.216600
vt 0.976500 0.518400
vt 0.976500 0.518400
vt 0.919800 0.518400
vt 0.878000 0.216600
vt 0.540200 0.216600
vt 0.540200 0.518400
vt 0.478900 0.518400
vt 0.478900 0.518400
vt 0.478900 0.216600
vt 0.540200 0.216600
vt 0.535600 0.073700
vt 0.535600 0.457100
vt 0.478900 0.457100
vt 0.535600 0.020800
vt 0.535600 0.073700
vt 0.478900 0.457100
vt 0.535600 0.020800
vt 0.478900 0.457100
vt 0.478900 0.073700
vt 0.535600 0.020800
vt 0.478900 0.073700
vt 0.478900 0.020800
vt 0.976500 0.216600
vt 0.976500 0.518400
vt 0.915200 0.518400
vt 0.915200 0.518400
vt 0.915200 0.217000
vt 0.976500 0.216600
vt 0.923600 0.216600
vt 0.923600 0.518400
vt 0.540200 0.518400
vt 0.540200 0.518400
vt 0.540200 0.216600
vt 0.923600 0.216600
vt 0.535600 0.518400
vt 0.478900 0.518400
vt 0.478900 0.457100
vt 0.478900 0.457100
vt 0.535600 0.457100
vt 0.535600 0.518400
vt 0.478900 0.457100
vt 0.478900 0.073700
vt 0.933700 0.073700
vt 0.933700 0.073700
vt 0.933700 0.457100
vt 0.478900 0.457100
vt 0.577500 0.193200
vt 0.520800 0.193200
vt 0.520800 0.020800
vt 0.520800 0.020800
vt 0.577500 0.020800
vt 0.577500 0.193200
vt 0.925900 0.193200
vt 0.577500 0.193200
vt 0.577500 0.020800
vt 0.577500 0.020800
vt 0.925900 0.020800
vt 0.925900 0.193200
vt 0.976500 0.193200
vt 0.925900 0.193200
vt 0.925900 0.020800
vt 0.925900 0.020800
vt 0.976500 0.020800
vt 0.976500 0.193200
vt 0.531800 0.193200
vt 0.478900 0.193200
vt 0.478900 0.020800
vt 0.478900 0.020800
vt 0.531800 0.020800
vt 0.531800 0.193200
vt 0.976500 0.193200
vt 0.915200 0.193200
vt 0.915200 0.020800
vt 0.915200 0.020800
vt 0.976500 0.020800
vt 0.976500 0.193200
vt 0.529500 0.193200
vt 0.478900 0.193200
vt 0.478900 0.020800
vt 0.478900 0.020800
vt 0.529500 0.020800
vt 0.529500 0.193200
vt 0.878000 0.193200
vt 0.529500 0.193200
vt 0.529500 0.020800
vt 0.529500 0.020800
vt 0.878000 0.020800
vt 0.878000 0.193200
vt 0.934700 0.193200
vt 0.878000 0.193200
vt 0.878000 0.020800
vt 0.878000 0.020800
vt 0.934700 0.020800
vt 0.934700 0.193200
vt 0.976500 0.193200
vt 0.923600 0.193700
vt 0.923600 0.021200
vt 0.923600 0.021200
vt 0.976500 0.020800
vt 0.976500 0.193200
vt 0.540200 0.193700
vt 0.478900 0.193200
vt 0.478900 0.020800
vt 0.478900 0.020800
vt 0.540200 0.021200
vt 0.540200 0.193700
vt 0.933700 0.193700
vt 0.478900 0.193200
vt 0.478900 0.020800
vt 0.478900 0.020800
vt 0.933700 0.021200
vt 0.933700 0.193700
vt 0.976500 0.193200
vt 0.521700 0.193700
vt 0.521700 0.021200
vt 0.521700 0.021200
vt 0.976500 0.020800
vt 0.976500 0.193200
vt 0.933700 0.073700
vt 0.478900 0.073700
vt 0.478900 0.020800
vt 0.933700 0.073700
vt 0.478900 0.020800
vt 0.529500 0.020800
vt 0.933700 0.073700
vt 0.529500 0.020800
vt 0.878000 0.020800
vt 0.934700 0.020800
vt 0.933700 0.073700
vt 0.878000 0.020800
vt 0.478900 0.457100
vt 0.933700 0.457100
vt 0.934700 0.518400
vt 0.478900 0.457100
vt 0.934700 0.518400
vt 0.878000 0.518400
vt 0.478900 0.457100
vt 0.878000 0.518400
vt 0.529500 0.518400
vt 0.478900 0.457100
vt 0.529500 0.518400
vt 0.478900 0.518400
vt 0.437600 0.557900
vt 0.437600 0.972600
vt 0.027500 0.972600
vt 0.027500 0.972600
vt 0.027500 0.557900
vt 0.437600 0.557900
vt 0.027500 0.972600
vt 0.027500 0.980400
vt 0.023000 0.979400
vt 0.027500 0.972600
vt 0.023000 0.979400
vt 0.019700 0.976500
vt 0.027500 0.972600
vt 0.019700 0.976500
vt 0.018500 0.972600
vt 0.018500 0.557900
vt 0.027500 0.557900
vt 0.027500 0.972600
vt 0.027500 0.972600
vt 0.018500 0.972600
vt 0.018500 0.557900
vt 0.027500 0.557900
vt 0.018500 0.557900
vt 0.019700 0.553900
vt 0.027500 0.557900
vt 0.019700 0.553900
vt 0.023000 0.551100
vt 0.027500 0.557900
vt 0.023000 0.551100
vt 0.027500 0.550000
vt 0.437600 0.550000
vt 0.437600 0.557900
vt 0.027500 0.557900
vt 0.027500 0.557900
vt 0.027500 0.550000
vt 0.437600 0.550000
vt 0.437600 0.557900
vt 0.437600 0.550000
vt 0.442100 0.551100
vt 0.437600 0.557900
vt 0.442100 0.551100
vt 0.445400 0.553900
vt 0.437600 0.557900
vt 0.445400 0.553900
vt 0.446600 0.557900
vt 0.446600 0.972600
vt 0.437600 0.972600
vt 0.437600 0.557900
vt 0.437600 0.557900
vt 0.446600 0.557900
vt 0.446600 0.972600
vt 0.437600 0.972600
vt 0.446600 0.972600
vt 0.445400 0.976500
vt 0.437600 0.972600
vt 0.445400 0.976500
vt 0.442100 0.979400
vt 0.437600 0.972600
vt 0.442100 0.979400
vt 0.437600 0.980400
vt 0.027500 0.980400
vt 0.027500 0.972600
vt 0.437600 0.972600
vt 0.437600 0.972600
vt 0.437600 0.980400
vt 0.027500 0.980400
vt 0.019700 0.984300
vt 0.023000 0.979400
vt 0.027500 0.980400
vt 0.027500 0.980400
vt 0.027500 0.986200
vt 0.019700 0.984300
vt 0.014000 0.979400
vt 0.019700 0.976500
vt 0.023000 0.979400
vt 0.023000 0.979400
vt 0.019700 0.984300
vt 0.014000 0.979400
vt 0.011900 0.972600
vt 0.018500 0.972600
vt 0.019700 0.976500
vt 0.019700 0.976500
vt 0.014000 0.979400
vt 0.011900 0.972600
vt 0.011900 0.557900
vt 0.018500 0.557900
vt 0.018500 0.972600
vt 0.018500 0.972600
vt 0.011900 0.972600
vt 0.011900 0.557900
vt 0.014000 0.551100
vt 0.019700 0.553900
vt 0.018500 0.557900
vt 0.018500 0.557900
vt 0.011900 0.557900
vt 0.014000 0.551100
vt 0.019700 0.546100
vt 0.023000 0.551100
vt 0.019700 0.553900
vt 0.019700 0.553900
vt 0.014000 0.551100
vt 0.019700 0.546100
vt 0.027500 0.544200
vt 0.027500 0.550000
vt 0.023000 0.551100
vt 0.023000 0.551100
vt 0.019700 0.546100
vt 0.027500 0.544200
vt 0.437600 0.544200
vt 0.437600 0.550000
vt 0.027500 0.550000
vt 0.027500 0.550000
vt 0.027500 0.544200
vt 0.437600 0.544200
vt 0.445400 0.546100
vt 0.442100 0.551100
vt 0.437600 0.550000
vt 0.437600 0.550000
vt 0.437600 0.544200
vt 0.445400 0.546100
vt 0.451100 0.551100
vt 0.445400 0.553900
vt 0.442100 0.551100
vt 0.442100 0.551100
vt 0.445400 0.546100
vt 0.451100 0.551100
vt 0.453200 0.557900
vt 0.446600 0.557900
vt 0.445400 0.553900
vt 0.445400 0.553900
vt 0.451100 0.551100
vt 0.453200 0.557900
vt 0.453200 0.972600
vt 0.446600 0.972600
vt 0.446600 0.557900
vt 0.446600 0.557900
vt 0.453200 0.557900
vt 0.453200 0.972600
vt 0.451100 0.979400
vt 0.445400 0.976500
vt 0.446600 0.972600
vt 0.446600 0.972600
vt 0.453200 0.972600
vt 0.451100 0.979400
vt 0.445400 0.984300
vt 0.442100 0.979400
vt 0.445400 0.976500
vt 0.445400 0.976500
vt 0.451100 0.979400
vt 0.445400 0.984300
vt 0.437600 0.986200
vt 0.437600 0.980400
vt 0.442100 0.979400
vt 0.442100 0.979400
vt 0.445400 0.984300
vt 0.437600 0.986200
vt 0.027500 0.986200
vt 0.027500 0.980400
vt 0.437600 0.980400
vt 0.437600 0.980400
vt 0.437600 0.986200
vt 0.027500 0.986200
vt 0.018500 0.986200
vt 0.019700 0.984300
vt 0.027500 0.986200
vt 0.027500 0.986200
vt 0.027500 0.988300
vt 0.018500 0.986200
vt 0.011900 0.980400
vt 0.014000 0.979400
vt 0.019700 0.984300
vt 0.019700 0.984300
vt 0.018500 0.986200
vt 0.011900 0.980400
vt 0.009500 0.972600
vt 0.011900 0.972600
vt 0.014000 0.979400
vt 0.014000 0.979400
vt 0.011900 0.980400
vt 0.009500 0.972600
vt 0.009500 0.557900
vt 0.011900 0.557900
vt 0.011900 0.972600
vt 0.011900 0.972600
vt 0.009500 0.972600
vt 0.009500 0.557900
vt 0.011900 0.550000
vt 0.014000 0.551100
vt 0.011900 0.557900
vt 0.011900 0.557900
vt 0.009500 0.557900
vt 0.011900 0.550000
vt 0.018500 0.544200
vt 0.019700 0.546100
vt 0.014000 0.551100
vt 0.014000 0.551100
vt 0.011900 0.550000
vt 0.018500 0.544200
vt 0.027500 0.542100
vt 0.027500 0.544200
vt 0.019700 0.546100
vt 0.019700 0.546100
vt 0.018500 0.544200
vt 0.027500 0.542100
vt 0.437600 0.542100
vt 0.437600 0.544200
vt 0.027500 0.544200
vt 0.027500 0.544200
vt 0.027500 0.542100
vt 0.437600 0.542100
vt 0.446600 0.544200
vt 0.445400 0.546100
vt 0.437600 0.544200
vt 0.437600 0.544200
vt 0.437600 0.542100
vt 0.446600 0.544200
vt 0.453200 0.550000
vt 0.451100 0.551100
vt 0.445400 0.546100
vt 0.445400 0.546100
vt 0.446600 0.544200
vt 0.453200 0.550000
vt 0.455600 0.557900
vt 0.453200 0.557900
vt 0.451100 0.551100
vt 0.451100 0.551100
vt 0.453200 0.550000
vt 0.455600 0.557900
vt 0.455600 0.972600
vt 0.453200 0.972600
vt 0.453200 0.557900
vt 0.453200 0.557900
vt 0.455600 0.557900
vt 0.455600 0.972600
vt 0.453200 0.980400
vt 0.451100 0.979400
vt 0.453200 0.972600
vt 0.453200 0.972600
vt 0.455600 0.972600
vt 0.453200 0.980400
vt 0.446600 0.986200
vt 0.445400 0.984300
vt 0.451100 0.979400
vt 0.451100 0.979400
vt 0.453200 0.980400
vt 0.446600 0.986200
vt 0.437600 0.988300
vt 0.437600 0.986200
vt 0.445400 0.984300
vt 0.445400 0.984300
vt 0.446600 0.986200
vt 0.437600 0.988300
vt 0.027500 0.988300
vt 0.027500 0.986200
vt 0.437600 0.986200
vt 0.437600 0.986200
vt 0.437600 0.988300
vt 0.027500 0.988300
vt 0.013600 0.950700
vt 0.013600 0.907100
vt 0.021700 0.907100
vt 0.021700 0.907100
vt 0.021700 0.950700
vt 0.013600 0.950700
vt 0.462100 0.795500
vt 0.462100 0.751800
vt 0.468000 0.751800
vt 0.468000 0.751800
vt 0.468000 0.795500
vt 0.462100 0.795500
vt 0.454000 0.795500
vt 0.454000 0.751800
vt 0.462100 0.751800
vt 0.462100 0.751800
vt 0.462100 0.795500
vt 0.454000 0.795500
vt 0.027600 0.795500
vt 0.027600 0.751800
vt 0.454000 0.751800
vt 0.454000 0.751800
vt 0.454000 0.795500
vt 0.027600 0.795500
vt 0.019500 0.795500
vt 0.019500 0.751800
vt 0.027600 0.751800
vt 0.027600 0.751800
vt 0.027600 0.795500
vt 0.019500 0.795500
vt 0.013600 0.795500
vt 0.013600 0.751800
vt 0.019500 0.751800
vt 0.019500 0.751800
vt 0.019500 0.795500
vt 0.013600 0.795500
vt 0.389600 0.898900
vt 0.389600 0.855300
vt 0.397700 0.855300
vt 0.397700 0.855300
vt 0.397700 0.898900
vt 0.389600 0.898900
vt 0.021700 0.898900
vt 0.021700 0.855300
vt 0.389600 0.855300
vt 0.389600 0.855300
vt 0.389600 0.898900
vt 0.021700 0.898900
vt 0.013600 0.898900
vt 0.013600 0.855300
vt 0.021700 0.855300
vt 0.021700 0.855300
vt 0.021700 0.898900
vt 0.013600 0.898900
vt 0.462100 0.847200
vt 0.462100 0.803600
vt 0.468000 0.803600
vt 0.468000 0.803600
vt 0.468000 0.847200
vt 0.462100 0.847200
vt 0.454000 0.847200
vt 0.454000 0.803600
vt 0.462100 0.803600
vt 0.462100 0.803600
vt 0.462100 0.847200
vt 0.454000 0.847200
vt 0.027600 0.847200
vt 0.027600 0.803600
vt 0.454000 0.803600
vt 0.454000 0.803600
vt 0.454000 0.847200
vt 0.027600 0.847200
vt 0.019500 0.847200
vt 0.019500 0.803600
vt 0.027600 0.803600
vt 0.027600 0.803600
vt 0.027600 0.847200
vt 0.019500 0.847200
vt 0.013600 0.847200
vt 0.013600 0.803600
vt 0.019500 0.803600
vt 0.019500 0.803600
vt 0.019500 0.847200
vt 0.013600 0.847200
vt 0.389600 0.950700
vt 0.389600 0.907100
vt 0.397700 0.907100
vt 0.397700 0.907100
vt 0.397700 0.950700
vt 0.389600 0.950700
vt 0.021700 0.950700
vt 0.021700 0.907100
vt 0.389600 0.907100
vt 0.389600 0.907100
vt 0.389600 0.950700
vt 0.021700 0.950700
vt 0.019700 0.546100
vt 0.018500 0.544200
vt 0.027500 0.542100
vt 0.027500 0.542100
vt 0.027500 0.544200
vt 0.019700 0.546100
vt 0.014000 0.551100
vt 0.011900 0.550000
vt 0.018500 0.544200
vt 0.018500 0.544200
vt 0.019700 0.546100
vt 0.014000 0.551100
vt 0.011900 0.557900
vt 0.009500 0.557900
vt 0.011900 0.550000
vt 0.011900 0.550000
vt 0.014000 0.551100
vt 0.011900 0.557900
vt 0.011900 0.972600
vt 0.009500 0.972600
vt 0.009500 0.557900
vt 0.009500 0.557900
vt 0.011900 0.557900
vt 0.011900 0.972600
vt 0.014000 0.979400
vt 0.011900 0.980400
vt 0.009500 0.972600
vt 0.009500 0.972600
vt 0.011900 0.972600
vt 0.014000 0.979400
vt 0.019700 0.984300
vt 0.018500 0.986200
vt 0.011900 0.980400
vt 0.011900 0.980400
vt 0.014000 0.979400
vt 0.019700 0.984300
vt 0.027500 0.986200
vt 0.027500 0.988300
vt 0.018500 0.986200
vt 0.018500 0.986200
vt 0.019700 0.984300
vt 0.027500 0.986200
vt 0.437600 0.986200
vt 0.437600 0.988300
vt 0.027500 0.988300
vt 0.027500 0.988300
vt 0.027500 0.986200
vt 0.437600 0.986200
vt 0.445400 0.984300
vt 0.446600 0.986200
vt 0.437600 0.988300
vt 0.437600 0.988300
vt 0.437600 0.986200
vt 0.445400 0.984300
vt 0.451100 0.979400
vt 0.453200 0.980400
vt 0.446600 0.986200
vt 0.446600 0.986200
vt 0.445400 0.984300
vt 0.451100 0.979400
vt 0.453200 0.972600
vt 0.455600 0.972600
vt 0.453200 0.980400
vt 0.453200 0.980400
vt 0.451100 0.979400
vt 0.453200 0.972600
vt 0.453200 0.557900
vt 0.455600 0.557900
vt 0.455600 0.972600
vt 0.455600 0.972600
vt 0.453200 0.972600
vt 0.453200 0.557900
vt 0.451100 0.551100
vt 0.453200 0.550000
vt 0.455600 0.557900
vt 0.455600 0.557900
vt 0.453200 0.557900
vt 0.451100 0.551100
vt 0.445400 0.546100
vt 0.446600 0.544200
vt 0.453200 0.550000
vt 0.453200 0.550000
vt 0.451100 0.551100
vt 0.445400 0.546100
vt 0.437600 0.544200
vt 0.437600 0.542100
vt 0.446600 0.544200
vt 0.446600 0.544200
vt 0.445400 0.546100
vt 0.437600 0.544200
vt 0.027500 0.544200
vt 0.027500 0.542100
vt 0.437600 0.542100
vt 0.437600 0.542100
vt 0.437600 0.544200
vt 0.027500 0.544200
vt 0.023000 0.551100
vt 0.019700 0.546100
vt 0.027500 0.544200
vt 0.027500 0.544200
vt 0.027500 0.550000
vt 0.023000 0.551100
vt 0.019700 0.553900
vt 0.014000 0.551100
vt 0.019700 0.546100
vt 0.019700 0.546100
vt 0.023000 0.551100
vt 0.019700 0.553900
vt 0.018500 0.557900
vt 0.011900 0.557900
vt 0.014000 0.551100
vt 0.014000 0.551100
vt 0.019700 0.553900
vt 0.018500 0.557900
vt 0.018500 0.972600
vt 0.011900 0.972600
vt 0.011900 0.557900
vt 0.011900 0.557900
vt 0.018500 0.557900
vt 0.018500 0.972600
vt 0.019700 0.976500
vt 0.014000 0.979400
vt 0.011900 0.972600
vt 0.011900 0.972600
vt 0.018500 0.972600
vt 0.019700 0.976500
vt 0.023000 0.979400
vt 0.019700 0.984300
vt 0.014000 0.979400
vt 0.014000 0.979400
vt 0.019700 0.976500
vt 0.023000 0.979400
vt 0.027500 0.980400
vt 0.027500 0.986200
vt 0.019700 0.984300
vt 0.019700 0.984300
vt 0.023000 0.979400
vt 0.027500 0.980400
vt 0.437600 0.980400
vt 0.437600 0.986200
vt 0.027500 0.986200
vt 0.027500 0.986200
vt 0.027500 0.980400
vt 0.437600 0.980400
vt 0.442100 0.979400
vt 0.445400 0.984300
vt 0.437600 0.986200
vt 0.437600 0.986200
vt 0.437600 0.980400
vt 0.442100 0.979400
vt 0.445400 0.976500
vt 0.451100 0.979400
vt 0.445400 0.984300
vt 0.445400 0.984300
vt 0.442100 0.979400
vt 0.445400 0.976500
vt 0.446600 0.972600
vt 0.453200 0.972600
vt 0.451100 0.979400
vt 0.451100 0.979400
vt 0.445400 0.976500
vt 0.446600 0.972600
vt 0.446600 0.557900
vt 0.453200 0.557900
vt 0.453200 0.972600
vt 0.453200 0.972600
vt 0.446600 0.972600
vt 0.446600 0.557900
vt 0.445400 0.553900
vt 0.451100 0.551100
vt 0.453200 0.557900
vt 0.453200 0.557900
vt 0.446600 0.557900
vt 0.445400 0.553900
vt 0.442100 0.551100
vt 0.445400 0.546100
vt 0.451100 0.551100
vt 0.451100 0.551100
vt 0.445400 0.553900
vt 0.442100 0.551100
vt 0.437600 0.550000
vt 0.437600 0.544200
vt 0.445400 0.546100
vt 0.445400 0.546100
vt 0.442100 0.551100
vt 0.437600 0.550000
vt 0.027500 0.550000
vt 0.027500 0.544200
vt 0.437600 0.544200
vt 0.437600 0.544200
vt 0.437600 0.550000
vt 0.027500 0.550000
vt 0.027500 0.550000
vt 0.027500 0.557900
vt 0.023000 0.551100
vt 0.023000 0.551100
vt 0.027500 0.557900
vt 0.019700 0.553900
vt 0.019700 0.553900
vt 0.027500 0.557900
vt 0.018500 0.557900
vt 0.027500 0.972600
vt 0.018500 0.972600
vt 0.018500 0.557900
vt 0.018500 0.557900
vt 0.027500 0.557900
vt 0.027500 0.972600
vt 0.018500 0.972600
vt 0.027500 0.972600
vt 0.019700 0.976500
vt 0.019700 0.976500
vt 0.027500 0.972600
vt 0.023000 0.979400
vt 0.023000 0.979400
vt 0.027500 0.972600
vt 0.027500 0.980400
vt 0.437600 0.972600
vt 0.437600 0.980400
vt 0.027500 0.980400
vt 0.027500 0.980400
vt 0.027500 0.972600
vt 0.437600 0.972600
vt 0.437600 0.980400
vt 0.437600 0.972600
vt 0.442100 0.979400
vt 0.442100 0.979400
vt 0.437600 0.972600
vt 0.445400 0.976500
vt 0.445400 0.976500
vt 0.437600 0.972600
vt 0.446600 0.972600
vt 0.437600 0.557900
vt 0.446600 0.557900
vt 0.446600 0.972600
vt 0.446600 0.972600
vt 0.437600 0.972600
vt 0.437600 0.557900
vt 0.446600 0.557900
vt 0.437600 0.557900
vt 0.445400 0.553900
vt 0.445400 0.553900
vt 0.437600 0.557900
vt 0.442100 0.551100
vt 0.442100 0.551100
vt 0.437600 0.557900
vt 0.437600 0.550000
vt 0.027500 0.557900
vt 0.027500 0.550000
vt 0.437600 0.550000
vt 0.437600 0.550000
vt 0.437600 0.557900
vt 0.027500 0.557900
vt 0.027500 0.972600
vt 0.027500 0.557900
vt 0.437600 0.557900
vt 0.437600 0.557900
vt 0.437600 0.972600
vt 0.027500 0.972600
vt 0.577500 0.020800
vt 0.925900 0.020800
vt 0.925900 0.073700
vt 0.925900 0.073700
vt 0.577500 0.073700
vt 0.577500 0.020800
vt 0.925900 0.020800
vt 0.976500 0.020800
vt 0.976500 0.073700
vt 0.976500 0.073700
vt 0.925900 0.073700
vt 0.925900 0.020800
vt 0.925900 0.073700
vt 0.925900 0.457100
vt 0.577500 0.457100
vt 0.577500 0.457100
vt 0.577500 0.073700
vt 0.925900 0.073700
vt 0.976500 0.073700
vt 0.976500 0.457100
vt 0.925900 0.457100
vt 0.925900 0.457100
vt 0.925900 0.073700
vt 0.976500 0.073700
vt 0.925900 0.518400
vt 0.577500 0.518400
vt 0.577500 0.457100
vt 0.577500 0.457100
vt 0.925900 0.457100
vt 0.925900 0.518400
vt 0.976500 0.518400
vt 0.925900 0.518400
vt 0.925900 0.457100
vt 0.925900 0.457100
vt 0.976500 0.457100
vt 0.976500 0.518400
vt 0.520800 0.193200
vt 0.577500 0.193200
vt 0.577500 0.216600
vt 0.577500 0.216600
vt 0.520800 0.216600
vt 0.520800 0.193200
vt 0.577500 0.193200
vt 0.925900 0.193200
vt 0.925900 0.216600
vt 0.925900 0.216600
vt 0.577500 0.216600
vt 0.577500 0.193200
vt 0.925900 0.193200
vt 0.976500 0.193200
vt 0.976500 0.216600
vt 0.976500 0.216600
vt 0.925900 0.216600
vt 0.925900 0.193200
vt 0.478900 0.193200
vt 0.531800 0.193200
vt 0.531800 0.216600
vt 0.531800 0.216600
vt 0.478900 0.216600
vt 0.478900 0.193200
vt 0.915200 0.193200
vt 0.915200 0.216600
vt 0.531800 0.216600
vt 0.531800 0.216600
vt 0.531800 0.193200
vt 0.915200 0.193200
vt 0.976500 0.193200
vt 0.976500 0.216600
vt 0.915200 0.216600
vt 0.915200 0.216600
vt 0.915200 0.193200
vt 0.976500 0.193200
vt 0.478900 0.193200
vt 0.529500 0.193200
vt 0.529500 0.216600
vt 0.529500 0.216600
vt 0.478900 0.216600
vt 0.478900 0.193200
vt 0.529500 0.193200
vt 0.878000 0.193200
vt 0.878000 0.216600
vt 0.878000 0.216600
vt 0.529500 0.216600
vt 0.529500 0.193200
vt 0.878000 0.193200
vt 0.934700 0.193200
vt 0.934700 0.216600
vt 0.934700 0.216600
vt 0.878000 0.216600
vt 0.878000 0.193200
vt 0.540200 0.193700
vt 0.540200 0.216600
vt 0.478900 0.216600
vt 0.478900 0.216600
vt 0.478900 0.193200
vt 0.540200 0.193700
vt 0.923600 0.193700
vt 0.976500 0.193200
vt 0.976500 0.216600
vt 0.976500 0.216600
vt 0.923600 0.216600
vt 0.923600 0.193700
vt 0.923600 0.193700
vt 0.923600 0.216600
vt 0.540200 0.216600
vt 0.540200 0.216600
vt 0.540200 0.193700
vt 0.923600 0.193700
vn 0.000000 0.000000 1.000000
vn 0.000000 0.000000 1.000000
vn 0.000000 0.000000 1.000000
vn 0.000000 0.000000 1.000000
vn 0.000000 0.000000 1.000000
vn 0.000000 0.000000 1.000000
vn 0.998215 0.059701 0.001300
vn 0.998215 0.059701 0.001300
vn 0.998215 0.059701 0.001300
vn 0.998216 0.059701 0.000000
vn 0.998216 0.059701 0.000000
vn 0.998216 0.059701 0.000000
vn -0.998216 -0.059701 0.000000
vn -0.998216 -0.059701 0.000000
vn -0.998216 -0.059701 0.000000
vn -0.998216 -0.059701 0.000000
vn -0.998216 -0.059701 0.000000
vn -0.998216 -0.059701 0.000000
vn 0.998216 0.059701 0.000000
vn 0.998216 0.059701 0.000000
vn 0.998216 0.059701 0.000000
vn 0.998216 0.059701 0.000000
vn 0.998216 0.059701 0.000000
vn 0.998216 0.059701 0.000000
vn 0.000000 0.000000 -1.000000
vn 0.000000 0.000000 -1.000000
vn 0.000000 0.000000 -1.000000
vn 0.000000 0.000000 -1.000000
vn 0.000000 0.000000 -1.000000
vn 0.000000 0.000000 -1.000000
vn -0.998216 -0.059701 0.000000
vn -0.998216 -0.059701 0.000000
vn -0.998216 -0.059701 0.000000
vn -0.998216 -0.059701 0.000000
vn -0.998216 -0.059701 0.000000
vn -0.998216 -0.059701 0.000000
vn 0.000000 1.000000 0.000000
vn 0.000000 1.000000 0.000000
vn 0.000000 1.000000 0.000000
vn 0.000000 1.000000 0.000000
vn 0.000000 1.000000 0.000000
vn 0.000000 1.000000 0.000000
vn 0.000000 1.000000 0.000000
vn 0.000000 1.000000 0.000000
vn 0.000000 1.000000 0.000000
vn 0.000000 1.000000 0.000000
vn 0.000000 1.000000 0.000000
vn 0.000000 1.000000 0.000000
vn 0.998216 0.059701 0.000000
vn 0.998216 0.059701 0.000000
vn 0.998216 0.059701 0.000000
vn 0.998216 0.059701 -0.001100
vn 0.998216 0.059701 -0.001100
vn 0.998216 0.059701 -0.001100
vn -0.998216 -0.059701 0.000000
vn -0.998216 -0.059701 0.000000
vn -0.998216 -0.059701 0.000000
vn -0.998216 -0.059701 0.000000
vn -0.998216 -0.059701 0.000000
vn -0.998216 -0.059701 0.000000
vn 0.000000 1.000000 0.000000
vn 0.000000 1.000000 0.000000
vn 0.000000 1.000000 0.000000
vn 0.000000 1.000000 0.000000
vn 0.000000 1.000000 0.000000
vn 0.000000 1.000000 0.000000
vn -0.002300 -0.999997 0.000000
vn -0.002300 -0.999997 0.000000
vn -0.002300 -0.999997 0.000000
vn -0.002300 -0.999997 0.000000
vn -0.002300 -0.999997 0.000000
vn -0.002300 -0.999997 0.000000
vn 0.000000 0.000000 1.000000
vn 0.000000 0.000000 1.000000
vn 0.000000 0.000000 1.000000
vn 0.000000 0.000000 1.000000
vn 0.000000 0.000000 1.000000
vn 0.000000 0.000000 1.000000
vn 0.000000 0.000000 1.000000
vn 0.000000 0.000000 1.000000
vn 0.000000 0.000000 1.000000
vn 0.000000 0.000000 1.000000
vn 0.000000 0.000000 1.000000
vn 0.000000 0.000000 1.000000
vn 0.000000 0.000000 1.000000
vn 0.000000 0.000000 1.000000
vn 0.000000 0.000000 1.000000
vn 0.000000 0.000000 1.000000
vn 0.000000 0.000000 1.000000
vn 0.000000 0.000000 1.000000
vn 1.000000 0.000000 0.000000
vn 1.000000 0.000000 0.000000
vn 1.000000 0.000000 0.000000
vn 1.000000 0.000000 0.000000
vn 1.000000 0.000000 0.000000
vn 1.000000 0.000000 0.000000
vn 1.000000 0.000000 0.000000
vn 1.000000 0.000000 0.000000
vn 1.000000 0.000000 0.000000
vn 1.000000 0.000000 0.000000
vn 1.000000 0.000000 0.000000
vn 1.000000 0.000000 0.000000
vn 0.000000 0.000000 -1.000000
vn 0.000000 0.000000 -1.000000
vn 0.000000 0.000000 -1.000000
vn 0.000000 0.000000 -1.000000
vn 0.000000 0.000000 -1.000000
vn 0.000000 0.000000 -1.000000
vn 0.000000 0.000000 -1.000000
vn 0.000000 0.000000 -1.000000
vn 0.000000 0.000000 -1.000000
vn 0.000000 0.000000 -1.000000
vn 0.000000 0.000000 -1.000000
vn 0.000000 0.000000 -1.000000
vn 0.000000 0.000000 -1.000000
vn 0.000000 0.000000 -1.000000
vn 0.000000 0.000000 -1.000000
vn 0.000000 0.000000 -1.000000
vn 0.000000 0.000000 -1.000000
vn 0.000000 0.000000 -1.000000
vn -0.999808 0.000000 -0.019600
vn -0.999808 0.000000 -0.019600
vn -0.999808 0.000000 -0.019600
vn -0.999808 0.000000 -0.019600
vn -0.999808 0.000000 -0.019600
vn -0.999808 0.000000 -0.019600
vn -0.999857 0.000000 0.016899
vn -0.999857 0.000000 0.016899
vn -0.999857 0.000000 0.016899
vn -0.999857 0.000000 0.016899
vn -0.999857 0.000000 0.016899
vn -0.999857 0.000000 0.016899
vn 0.000000 0.000000 -1.000000
vn 0.000000 0.000000 -1.000000
vn 0.000000 0.000000 -1.000000
vn 0.000000 0.000000 -1.000000
vn 0.000000 0.000000 -1.000000
vn 0.000000 0.000000 -1.000000
vn 0.000000 0.000000 1.000000
vn 0.000000 0.000000 1.000000
vn 0.000000 0.000000 1.000000
vn 0.000000 0.000000 1.000000
vn 0.000000 0.000000 1.000000
vn 0.000000 0.000000 1.000000
vn -0.002300 -0.999997 0.000000
vn -0.002300 -0.999997 0.000000
vn -0.002300 -0.999997 0.000000
vn 0.000000 -0.999769 -0.021499
vn 0.000000 -0.999769 -0.021499
vn 0.000000 -0.999769 -0.021499
vn 0.000000 -0.999769 -0.021499
vn 0.000000 -0.999769 -0.021499
usemtl chairlow
f 116/1/116 105/2/105 133/3/133
f 133/4/133 134/5/134 116/6/116
f 105/7/105 108/8/108 135/9/135
f 135/10/135 133/11/133 105/12/105
f 132/13/132 116/14/116 134/15/134
f 134/16/134 136/17/136 132/18/132
f 112/19/112 137/20/137 135/21/135
f 135/22/135 108/23/108 112/24/112
f 126/25/126 128/26/128 138/27/138
f 138/28/138 139/29/139 126/30/126
f 130/31/130 140/32/140 138/33/138
f 138/34/138 128/35/128 130/36/130
f 135/37/135 137/38/137 140/39/140
f 133/40/133 135/41/135 140/42/140
f 133/43/133 140/44/140 136/45/136
f 133/46/133 136/47/136 134/48/134
f 126/49/126 139/50/139 137/51/137
f 137/52/137 112/53/112 126/54/126
f 132/55/132 136/56/136 140/57/140
f 140/58/140 130/59/130 132/60/132
f 139/61/139 138/62/138 140/63/140
f 140/64/140 137/65/137 139/66/139
f 120/67/120 119/68/119 131/69/131
f 131/70/131 129/71/129 120/72/120
f 115/73/115 114/74/114 141/75/141
f 141/76/141 142/77/142 115/78/115
f 117/79/117 115/80/115 142/81/142
f 142/82/142 143/83/143 117/84/117
f 118/85/118 117/86/117 143/87/143
f 143/88/143 144/89/144 118/90/118
f 119/91/119 118/92/118 144/93/144
f 144/94/144 145/95/145 119/96/119
f 121/97/121 120/98/120 146/99/146
f 146/100/146 147/101/147 121/102/121
f 122/103/122 121/104/121 147/105/147
f 147/106/147 148/107/148 122/108/122
f 125/109/125 122/110/122 148/111/148
f 148/112/148 149/113/149 125/114/125
f 127/115/127 125/116/125 149/117/149
f 149/118/149 150/119/150 127/120/127
f 114/121/114 131/122/131 151/123/151
f 151/124/151 141/125/141 114/126/114
f 129/127/129 127/128/127 150/129/150
f 150/130/150 152/131/152 129/132/129
f 131/133/131 119/134/119 145/135/145
f 145/136/145 151/137/151 131/138/131
f 120/139/120 129/140/129 152/141/152
f 152/142/152 146/143/146 120/144/120
f 151/145/151 145/146/145 144/147/144
f 151/148/151 144/149/144 143/150/143
f 151/151/151 143/152/143 142/153/142
f 141/154/141 151/155/151 142/156/142
f 146/157/146 152/158/152 150/159/150
f 146/160/146 150/161/150 149/162/149
f 146/163/146 149/164/149 148/165/148
f 146/166/146 148/167/148 147/168/147
f 1/169/1 2/170/2 3/171/3
f 3/172/3 4/173/4 1/174/1
f 3/175/3 5/176/5 6/177/6
f 3/178/3 6/179/6 7/180/7
f 3/181/3 7/182/7 8/183/8
f 9/184/9 4/185/4 3/186/3
f 3/187/3 8/188/8 9/189/9
f 4/190/4 9/191/9 10/192/10
f 4/193/4 10/194/10 11/195/11
f 4/196/4 11/197/11 12/198/12
f 13/199/13 1/200/1 4/201/4
f 4/202/4 12/203/12 13/204/13
f 1/205/1 13/206/13 14/207/14
f 1/208/1 14/209/14 15/210/15
f 1/211/1 15/212/15 16/213/16
f 17/214/17 2/215/2 1/216/1
f 1/217/1 16/218/16 17/219/17
f 2/220/2 17/221/17 18/222/18
f 2/223/2 18/224/18 19/225/19
f 2/226/2 19/227/19 20/228/20
f 5/229/5 3/230/3 2/231/2
f 2/232/2 20/233/20 5/234/5
f 21/235/21 6/236/6 5/237/5
f 5/238/5 22/239/22 21/240/21
f 23/241/23 7/242/7 6/243/6
f 6/244/6 21/245/21 23/246/23
f 24/247/24 8/248/8 7/249/7
f 7/250/7 23/251/23 24/252/24
f 25/253/25 9/254/9 8/255/8
f 8/256/8 24/257/24 25/258/25
f 26/259/26 10/260/10 9/261/9
f 9/262/9 25/263/25 26/264/26
f 27/265/27 11/266/11 10/267/10
f 10/268/10 26/269/26 27/270/27
f 28/271/28 12/272/12 11/273/11
f 11/274/11 27/275/27 28/276/28
f 29/277/29 13/278/13 12/279/12
f 12/280/12 28/281/28 29/282/29
f 30/283/30 14/284/14 13/285/13
f 13/286/13 29/287/29 30/288/30
f 31/289/31 15/290/15 14/291/14
f 14/292/14 30/293/30 31/294/31
f 32/295/32 16/296/16 15/297/15
f 15/298/15 31/299/31 32/300/32
f 33/301/33 17/302/17 16/303/16
f 16/304/16 32/305/32 33/306/33
f 34/307/34 18/308/18 17/309/17
f 17/310/17 33/311/33 34/312/34
f 35/313/35 19/314/19 18/315/18
f 18/316/18 34/317/34 35/318/35
f 36/319/36 20/320/20 19/321/19
f 19/322/19 35/323/35 36/324/36
f 22/325/22 5/326/5 20/327/20
f 20/328/20 36/329/36 22/330/22
f 37/331/37 21/332/21 22/333/22
f 22/334/22 38/335/38 37/336/37
f 39/337/39 23/338/23 21/339/21
f 21/340/21 37/341/37 39/342/39
f 40/343/40 24/344/24 23/345/23
f 23/346/23 39/347/39 40/348/40
f 41/349/41 25/350/25 24/351/24
f 24/352/24 40/353/40 41/354/41
f 42/355/42 26/356/26 25/357/25
f 25/358/25 41/359/41 42/360/42
f 43/361/43 27/362/27 26/363/26
f 26/364/26 42/365/42 43/366/43
f 44/367/44 28/368/28 27/369/27
f 27/370/27 43/371/43 44/372/44
f 45/373/45 29/374/29 28/375/28
f 28/376/28 44/377/44 45/378/45
f 46/379/46 30/380/30 29/381/29
f 29/382/29 45/383/45 46/384/46
f 47/385/47 31/386/31 30/387/30
f 30/388/30 46/389/46 47/390/47
f 48/391/48 32/392/32 31/393/31
f 31/394/31 47/395/47 48/396/48
f 49/397/49 33/398/33 32/399/32
f 32/400/32 48/401/48 49/402/49
f 50/403/50 34/404/34 33/405/33
f 33/406/33 49/407/49 50/408/50
f 51/409/51 35/410/35 34/411/34
f 34/412/34 50/413/50 51/414/51
f 52/415/52 36/416/36 35/417/35
f 35/418/35 51/419/51 52/420/52
f 38/421/38 22/422/22 36/423/36
f 36/424/36 52/425/52 38/426/38
f 53/427/53 37/428/37 38/429/38
f 38/430/38 54/431/54 53/432/53
f 55/433/55 39/434/39 37/435/37
f 37/436/37 53/437/53 55/438/55
f 56/439/56 40/440/40 39/441/39
f 39/442/39 55/443/55 56/444/56
f 57/445/57 41/446/41 40/447/40
f 40/448/40 56/449/56 57/450/57
f 58/451/58 42/452/42 41/453/41
f 41/454/41 57/455/57 58/456/58
f 59/457/59 43/458/43 42/459/42
f 42/460/42 58/461/58 59/462/59
f 60/463/60 44/464/44 43/465/43
f 43/466/43 59/467/59 60/468/60
f 61/469/61 45/470/45 44/471/44
f 44/472/44 60/473/60 61/474/61
f 62/475/62 46/476/46 45/477/45
f 45/478/45 61/479/61 62/480/62
f 63/481/63 47/482/47 46/483/46
f 46/484/46 62/485/62 63/486/63
f 64/487/64 48/488/48 47/489/47
f 47/490/47 63/491/63 64/492/64
f 65/493/65 49/494/49 48/495/48
f 48/496/48 64/497/64 65/498/65
f 66/499/66 50/500/50 49/501/49
f 49/502/49 65/503/65 66/504/66
f 67/505/67 51/506/51 50/507/50
f 50/508/50 66/509/66 67/510/67
f 68/511/68 52/512/52 51/513/51
f 51/514/51 67/515/67 68/516/68
f 54/517/54 38/518/38 52/519/52
f 52/520/52 68/521/68 54/522/54
f 69/523/69 53/524/53 54/525/54
f 54/526/54 70/527/70 69/528/69
f 71/529/71 55/530/55 53/531/53
f 53/532/53 69/533/69 71/534/71
f 72/535/72 56/536/56 55/537/55
f 55/538/55 71/539/71 72/540/72
f 73/541/73 57/542/57 56/543/56
f 56/544/56 72/545/72 73/546/73
f 74/547/74 58/548/58 57/549/57
f 57/550/57 73/551/73 74/552/74
f 75/553/75 59/554/59 58/555/58
f 58/556/58 74/557/74 75/558/75
f 76/559/76 60/560/60 59/561/59
f 59/562/59 75/563/75 76/564/76
f 77/565/77 61/566/61 60/567/60
f 60/568/60 76/569/76 77/570/77
f 78/571/78 62/572/62 61/573/61
f 61/574/61 77/575/77 78/576/78
f 79/577/79 63/578/63 62/579/62
f 62/580/62 78/581/78 79/582/79
f 80/583/80 64/584/64 63/585/63
f 63/586/63 79/587/79 80/588/80
f 81/589/81 65/590/65 64/591/64
f 64/592/64 80/593/80 81/594/81
f 82/595/82 66/596/66 65/597/65
f 65/598/65 81/599/81 82/600/82
f 83/601/83 67/602/67 66/603/66
f 66/604/66 82/605/82 83/606/83
f 84/607/84 68/608/68 67/609/67
f 67/610/67 83/611/83 84/612/84
f 70/613/70 54/614/54 68/615/68
f 68/616/68 84/617/84 70/618/70
f 85/619/85 69/620/69 70/621/70
f 70/622/70 86/623/86 85/624/85
f 87/625/87 71/626/71 69/627/69
f 69/628/69 85/629/85 87/630/87
f 88/631/88 72/632/72 71/633/71
f 71/634/71 87/635/87 88/636/88
f 89/637/89 73/638/73 72/639/72
f 72/640/72 88/641/88 89/642/89
f 90/643/90 74/644/74 73/645/73
f 73/646/73 89/647/89 90/648/90
f 91/649/91 75/650/75 74/651/74
f 74/652/74 90/653/90 91/654/91
f 92/655/92 76/656/76 75/657/75
f 75/658/75 91/659/91 92/660/92
f 93/661/93 77/662/77 76/663/76
f 76/664/76 92/665/92 93/666/93
f 94/667/94 78/668/78 77/669/77
f 77/670/77 93/671/93 94/672/94
f 95/673/95 79/674/79 78/675/78
f 78/676/78 94/677/94 95/678/95
f 96/679/96 80/680/80 79/681/79
f 79/682/79 95/683/95 96/684/96
f 97/685/97 81/686/81 80/687/80
f 80/688/80 96/689/96 97/690/97
f 98/691/98 82/692/82 81/693/81
f 81/694/81 97/695/97 98/696/98
f 99/697/99 83/698/83 82/699/82
f 82/700/82 98/701/98 99/702/99
f 100/703/100 84/704/84 83/705/83
f 83/706/83 99/707/99 100/708/100
f 86/709/86 70/710/70 84/711/84
f 84/712/84 100/713/100 86/714/86
f 86/715/86 101/716/101 85/717/85
f 85/718/85 101/719/101 87/720/87
f 87/721/87 101/722/101 88/723/88
f 102/724/102 89/725/89 88/726/88
f 88/727/88 101/728/101 102/729/102
f 89/730/89 102/731/102 90/732/90
f 90/733/90 102/734/102 91/735/91
f 91/736/91 102/737/102 92/738/92
f 103/739/103 93/740/93 92/741/92
f 92/742/92 102/743/102 103/744/103
f 93/745/93 103/746/103 94/747/94
f 94/748/94 103/749/103 95/750/95
f 95/751/95 103/752/103 96/753/96
f 104/754/104 97/755/97 96/756/96
f 96/757/96 103/758/103 104/759/104
f 97/760/97 104/761/104 98/762/98
f 98/763/98 104/764/104 99/765/99
f 99/766/99 104/767/104 100/768/100
f 101/769/101 86/770/86 100/771/100
f 100/772/100 104/773/104 101/774/101
f 102/775/102 101/776/101 104/777/104
f 104/778/104 103/779/103 102/780/102
f 105/781/105 106/782/106 107/783/107
f 107/784/107 108/785/108 105/786/105
f 106/787/106 109/788/109 110/789/110
f 110/790/110 107/791/107 106/792/106
f 107/793/107 111/794/111 112/795/112
f 112/796/112 108/797/108 107/798/107
f 110/799/110 113/800/113 111/801/111
f 111/802/111 107/803/107 110/804/110
f 123/805/123 126/806/126 112/807/112
f 112/808/112 111/809/111 123/810/123
f 124/811/124 123/812/123 111/813/111
f 111/814/111 113/815/113 124/816/124
f 114/817/114 115/818/115 105/819/105
f 105/820/105 116/821/116 114/822/114
f 115/823/115 117/824/117 106/825/106
f 106/826/106 105/827/105 115/828/115
f 117/829/117 118/830/118 109/831/109
f 109/832/109 106/833/106 117/834/117
f 118/835/118 119/836/119 110/837/110
f 110/838/110 109/839/109 118/840/118
f 120/841/120 113/842/113 110/843/110
f 110/844/110 119/845/119 120/846/120
f 121/847/121 124/848/124 113/849/113
f 113/850/113 120/851/120 121/852/121
f 121/853/121 122/854/122 123/855/123
f 123/856/123 124/857/124 121/858/121
f 122/859/122 125/860/125 126/861/126
f 126/862/126 123/863/123 122/864/122
f 125/865/125 127/866/127 128/867/128
f 128/868/128 126/869/126 125/870/125
f 129/871/129 130/872/130 128/873/128
f 128/874/128 127/875/127 129/876/129
f 131/877/131 114/878/114 116/879/116
f 116/880/116 132/881/132 131/882/131
f 131/883/131 132/884/132 130/885/130
f 130/886/130 129/887/129 131/888/131
