# WaveFront *.mtl file (generated by Cinema 4D)

newmtl AC53
Ka 1 1 1
Kd 0.80000001192093 0.80000001192093 0.80000001192093
map_Kd wood.jpg
Ks 1 1 1
map_Ks fabric.jpg
Ns 0
map_Ns 
illum 7
norm ArmChair53_Normal.jpg

