# 3ds Max Wavefront OBJ Exporter v0.97b - (c)2007 guruware
# File Created: 29.07.2020 10:06:43

newmtl wire_028089177
map_Kd stool.jpg
	Ns 32
	d 1
	Tr 0
	Tf 1 1 1
	illum 2
	Ka 0.1098 0.3490 0.6941
	Kd 0.1098 0.3490 0.6941
	Ks 0.3500 0.3500 0.3500
