# 
# Wavefront material file
# Created with Kaydara FBX
# 

newmtl Venue
map_Kd venue.png
Ka 0.074500 0.007800 0.972500
Kd 0.074500 0.007800 0.972500
Ks 0.000000 0.000000 0.000000
illum 2
Ns 10.000000
Tr 0.000000

newmtl venue_ceiling
map_Kd venue_ceiling.png
Ka 0.588200 0.588200 0.588200
Kd 0.588200 0.588200 0.588200
Ks 0.000000 0.000000 0.000000
illum 2
Ns 10.000000
Tr 0.000000

newmtl wire_087225087
Ka 0.341200 0.882400 0.341200
Kd 0.341200 0.882400 0.341200
Ks 0.350000 0.350000 0.350000
illum 2
Ns 32.000000
Tr 0.000000

newmtl venue_dancefloor
Ka 0.588200 0.588200 0.588200
Kd 0.588200 0.588200 0.588200
Ks 0.000000 0.000000 0.000000
illum 2
Ns 10.000000
Tr 0.000000

newmtl wire_135110008
Ka 0.529400 0.431400 0.031400
Kd 0.529400 0.431400 0.031400
Ks 0.350000 0.350000 0.350000
illum 2
Ns 32.000000
Tr 0.000000

newmtl venue_slab
map_Kd venue_slab.png
Ka 0.588200 0.588200 0.588200
Kd 0.588200 0.588200 0.588200
Ks 0.000000 0.000000 0.000000
illum 2
Ns 10.000000
Tr 0.000000

newmtl venue_windows
Ka 0.988200 0.682400 0.588200
Kd 0.988200 0.682400 0.588200
Ks 0.441000 0.441000 0.441000
illum 2
Ns 37.000000
Tr 0.690000
